\relax 
\@input{abstract1.aux}
\@input{acknowledgement.aux}
\citation{hog2}
\citation{m}
\@input{glossary.aux}
\citation{g}
\@writefile{toc}{\contentsline {section}{\numberline {1}Introduction}{12}}
\@writefile{toc}{\contentsline {subsection}{\numberline {1.1}The Project}{12}}
\citation{n}
\citation{willowGarage}
\@writefile{toc}{\contentsline {section}{\numberline {2}Literature Review}{14}}
\@writefile{toc}{\contentsline {subsection}{\numberline {2.1}Robotic Perception}{14}}
\newlabel{subfigure label}{{1(a)}{14}}
\newlabel{sub@subfigure label}{{(a)}{14}}
\newlabel{subfigure label}{{1(b)}{14}}
\newlabel{sub@subfigure label}{{(b)}{14}}
\@writefile{lof}{\contentsline {figure}{\numberline {1}{\ignorespaces Perception within Robotics}}{14}}
\@writefile{lof}{\contentsline {subfigure}{\numberline{(a)}{\ignorespaces {Multidisciplines}}}{14}}
\@writefile{lof}{\contentsline {subfigure}{\numberline{(b)}{\ignorespaces {Perception}}}{14}}
\newlabel{roboPerc}{{1}{14}}
\citation{g}
\citation{g}
\@writefile{toc}{\contentsline {subsubsection}{\numberline {2.1.1}Perception in Autonomous Vehicles}{15}}
\citation{visionStuff}
\citation{hog}
\citation{hog2}
\@writefile{toc}{\contentsline {subsection}{\numberline {2.2}Computer Vision}{16}}
\@writefile{toc}{\contentsline {subsubsection}{\numberline {2.2.1}Histogram of Oriented Gradients}{16}}
\newlabel{sec:litRev}{{2.2.1}{16}}
\citation{hog2}
\citation{hog2}
\@writefile{lof}{\contentsline {figure}{\numberline {2}{\ignorespaces \citet  {hog2}'s performance variations based on positive training samples used}}{17}}
\newlabel{fig:hog2}{{2}{17}}
\citation{occupancy1}
\citation{occupancy1}
\citation{occupancy2}
\citation{occupancy2}
\@writefile{toc}{\contentsline {subsection}{\numberline {2.3}Spatial Measurement Data}{18}}
\@writefile{toc}{\contentsline {subsubsection}{\numberline {2.3.1}Occupancy Grids}{18}}
\citation{indoorPCL}
\citation{pointcloud}
\@writefile{toc}{\contentsline {subsubsection}{\numberline {2.3.2}Point Clouds}{19}}
\citation{m}
\citation{m}
\citation{m}
\@writefile{toc}{\contentsline {section}{\numberline {3}Method}{20}}
\@writefile{toc}{\contentsline {subsection}{\numberline {3.1}Data Set Overview}{20}}
\newlabel{sec:dataSet}{{3.1}{20}}
\@writefile{lof}{\contentsline {figure}{\numberline {3}{\ignorespaces Relative position of the sensors WRT the body Frame \citep  {m}}}{21}}
\newlabel{sensorCoOrds}{{3}{21}}
\@writefile{lof}{\contentsline {figure}{\numberline {4}{\ignorespaces Data grouped by sensor type and directory location}}{22}}
\newlabel{dataSetArchi}{{4}{22}}
\@writefile{toc}{\contentsline {subsubsection}{\numberline {3.1.1}Vision Data}{22}}
\newlabel{distorted}{{5(a)}{23}}
\newlabel{sub@distorted}{{(a)}{23}}
\newlabel{distorted1}{{5(b)}{23}}
\newlabel{sub@distorted1}{{(b)}{23}}
\@writefile{lof}{\contentsline {figure}{\numberline {5}{\ignorespaces Comparison of\nobreakspace  {}5(a)\hbox {} single, undistorted image and\nobreakspace  {}5(b)\hbox {} full size distorted images.}}{23}}
\@writefile{lof}{\contentsline {subfigure}{\numberline{(a)}{\ignorespaces {Single camera, undistorted}}}{23}}
\@writefile{lof}{\contentsline {subfigure}{\numberline{(b)}{\ignorespaces {Full scale, spherically distorted image}}}{23}}
\newlabel{storedImages}{{5}{23}}
\@writefile{toc}{\contentsline {subsubsection}{\numberline {3.1.2}Laser Data}{23}}
\@writefile{lof}{\contentsline {figure}{\numberline {6}{\ignorespaces The MATLAB based player}}{24}}
\newlabel{hdlPlayer}{{6}{24}}
\@writefile{toc}{\contentsline {subsection}{\numberline {3.2}Playback Interface}{25}}
\@writefile{toc}{\contentsline {subsubsection}{\numberline {3.2.1}Robot Operating System}{25}}
\@writefile{lot}{\contentsline {table}{\numberline {1}{\ignorespaces ROS compatible software}}{25}}
\newlabel{tab:table}{{1}{25}}
\citation{LCM}
\newlabel{fig:rosArchiOrig}{{7(a)}{27}}
\newlabel{sub@fig:rosArchiOrig}{{(a)}{27}}
\newlabel{fig:rosArchiLCM}{{7(b)}{27}}
\newlabel{sub@fig:rosArchiLCM}{{(b)}{27}}
\@writefile{lof}{\contentsline {figure}{\numberline {7}{\ignorespaces Initial vs. required system architecture}}{27}}
\@writefile{lof}{\contentsline {subfigure}{\numberline{(a)}{\ignorespaces {Orignally Proposed Architecture}}}{27}}
\@writefile{lof}{\contentsline {subfigure}{\numberline{(b)}{\ignorespaces {Required Architecture}}}{27}}
\newlabel{fig:twoArchis}{{7}{27}}
\@writefile{toc}{\contentsline {subsubsection}{\numberline {3.2.2}MATLAB}{28}}
\@writefile{lof}{\contentsline {figure}{\numberline {8}{\ignorespaces Software Dependencies - MATLAB}}{29}}
\newlabel{fig:dependencyTree}{{8}{29}}
\@writefile{toc}{\contentsline {subsection}{\numberline {3.3}Algorithm Implementation}{30}}
\@writefile{toc}{\contentsline {subsubsection}{\numberline {3.3.1}MATLAB Toolboxes}{30}}
\@writefile{toc}{\contentsline {subsubsection}{\numberline {3.3.2}People Detection}{30}}
\newlabel{fig:pplDetect}{{9(a)}{31}}
\newlabel{sub@fig:pplDetect}{{(a)}{31}}
\newlabel{fig:pplDetectHOG}{{9(b)}{31}}
\newlabel{sub@fig:pplDetectHOG}{{(b)}{31}}
\@writefile{lof}{\contentsline {figure}{\numberline {9}{\ignorespaces Output of test images}}{31}}
\@writefile{lof}{\contentsline {subfigure}{\numberline{(a)}{\ignorespaces {Test image, detection score $\approx 0.14$}}}{31}}
\@writefile{lof}{\contentsline {subfigure}{\numberline{(b)}{\ignorespaces {Test image HOG features}}}{31}}
\newlabel{fig:peopleDetector}{{9}{31}}
\@writefile{lof}{\contentsline {figure}{\numberline {10}{\ignorespaces Pedestrian with HOG features}}{32}}
\newlabel{fig:pedestrianHOG}{{10}{32}}
\@writefile{toc}{\contentsline {subsubsection}{\numberline {3.3.3}Custom Vehicle Detector}{33}}
\newlabel{sec:compVis}{{3.3.3}{33}}
\newlabel{uncrop}{{11(a)}{34}}
\newlabel{sub@uncrop}{{(a)}{34}}
\newlabel{crop}{{11(b)}{34}}
\newlabel{sub@crop}{{(b)}{34}}
\@writefile{lof}{\contentsline {figure}{\numberline {11}{\ignorespaces Pre and Post-Crop (Image\nobreakspace  {}11(a)\hbox {} scaled down)}}{34}}
\@writefile{lof}{\contentsline {subfigure}{\numberline{(a)}{\ignorespaces {Pre-Crop}}}{34}}
\@writefile{lof}{\contentsline {subfigure}{\numberline{(b)}{\ignorespaces {Post-Crop}}}{34}}
\newlabel{fig:cropping}{{11}{34}}
\@writefile{lof}{\contentsline {figure}{\numberline {12}{\ignorespaces False Positive Detections}}{35}}
\newlabel{fig:firstClassWrong}{{12}{35}}
\citation{hog2}
\@writefile{toc}{\contentsline {subsubsection}{\numberline {3.3.4}Training Multiple Vehicle Detectors}{36}}
\newlabel{fig:FP}{{13(a)}{36}}
\newlabel{sub@fig:FP}{{(a)}{36}}
\newlabel{fig:SP}{{13(b)}{36}}
\newlabel{sub@fig:SP}{{(b)}{36}}
\@writefile{lof}{\contentsline {figure}{\numberline {13}{\ignorespaces Examples of profiles with ROIs defined}}{36}}
\@writefile{lof}{\contentsline {subfigure}{\numberline{(a)}{\ignorespaces {Front Profile}}}{36}}
\@writefile{lof}{\contentsline {subfigure}{\numberline{(b)}{\ignorespaces {Side Profile}}}{36}}
\newlabel{fig:profiles}{{13}{36}}
\@writefile{lof}{\contentsline {figure}{\numberline {14}{\ignorespaces The trajectory taken by the F-250}}{37}}
\newlabel{fig:traject}{{14}{37}}
\@writefile{lot}{\contentsline {table}{\numberline {2}{\ignorespaces Training set and parameter details}}{38}}
\newlabel{tab:trainingParam}{{2}{38}}
\@writefile{lof}{\contentsline {figure}{\numberline {15}{\ignorespaces Updated MATLAB software dependency tree}}{38}}
\newlabel{fig:updatedTree}{{15}{38}}
\@writefile{toc}{\contentsline {subsubsection}{\numberline {3.3.5}Occupancy Grid}{39}}
\@writefile{lof}{\contentsline {figure}{\numberline {16}{\ignorespaces 2D Projection of Scan points with Corresponding Image}}{39}}
\@writefile{lof}{\contentsline {subfigure}{\numberline{(a)}{\ignorespaces {Scale in metres}}}{39}}
\@writefile{lof}{\contentsline {subfigure}{\numberline{(b)}{\ignorespaces {}}}{39}}
\newlabel{fig:graphs}{{16}{39}}
\@writefile{toc}{\contentsline {section}{\numberline {4}Results}{41}}
\@writefile{toc}{\contentsline {subsection}{\numberline {4.1}Whole System Testing}{41}}
\newlabel{fig:}{{17(a)}{41}}
\newlabel{sub@fig:}{{(a)}{41}}
\newlabel{fig:}{{17(b)}{41}}
\newlabel{sub@fig:}{{(b)}{41}}
\newlabel{fig:}{{17(c)}{41}}
\newlabel{sub@fig:}{{(c)}{41}}
\@writefile{lof}{\contentsline {figure}{\numberline {17}{\ignorespaces Examples of correct detections with both classifiers active}}{41}}
\@writefile{lof}{\contentsline {subfigure}{\numberline{(a)}{\ignorespaces {}}}{41}}
\@writefile{lof}{\contentsline {subfigure}{\numberline{(b)}{\ignorespaces {}}}{41}}
\@writefile{lof}{\contentsline {subfigure}{\numberline{(c)}{\ignorespaces {}}}{41}}
\newlabel{fig:GoodResults}{{17}{41}}
\newlabel{fig:xy}{{18(a)}{42}}
\newlabel{sub@fig:xy}{{(a)}{42}}
\newlabel{fig:xz}{{18(b)}{42}}
\newlabel{sub@fig:xz}{{(b)}{42}}
\newlabel{fig:xx}{{18(c)}{42}}
\newlabel{sub@fig:xx}{{(c)}{42}}
\@writefile{lof}{\contentsline {figure}{\numberline {18}{\ignorespaces Examples of incorrect detections with both classifiers active}}{42}}
\@writefile{lof}{\contentsline {subfigure}{\numberline{(a)}{\ignorespaces {}}}{42}}
\@writefile{lof}{\contentsline {subfigure}{\numberline{(b)}{\ignorespaces {}}}{42}}
\@writefile{lof}{\contentsline {subfigure}{\numberline{(c)}{\ignorespaces {}}}{42}}
\newlabel{fig:BadResults}{{18}{42}}
\@writefile{toc}{\contentsline {subsection}{\numberline {4.2}Front Profile Classifier}{42}}
\newlabel{fig:}{{19(a)}{42}}
\newlabel{sub@fig:}{{(a)}{42}}
\newlabel{fig:}{{19(b)}{42}}
\newlabel{sub@fig:}{{(b)}{42}}
\newlabel{fig:}{{19(c)}{42}}
\newlabel{sub@fig:}{{(c)}{42}}
\@writefile{lof}{\contentsline {figure}{\numberline {19}{\ignorespaces Examples of correct detections - front profile classifier}}{42}}
\@writefile{lof}{\contentsline {subfigure}{\numberline{(a)}{\ignorespaces {}}}{42}}
\@writefile{lof}{\contentsline {subfigure}{\numberline{(b)}{\ignorespaces {}}}{42}}
\@writefile{lof}{\contentsline {subfigure}{\numberline{(c)}{\ignorespaces {}}}{42}}
\@writefile{lof}{\contentsline {figure}{\numberline {20}{\ignorespaces Examples of incorrect detections - front profile classifier}}{43}}
\@writefile{lof}{\contentsline {subfigure}{\numberline{(a)}{\ignorespaces {}}}{43}}
\@writefile{lof}{\contentsline {subfigure}{\numberline{(b)}{\ignorespaces {}}}{43}}
\@writefile{lof}{\contentsline {subfigure}{\numberline{(c)}{\ignorespaces {}}}{43}}
\@writefile{toc}{\contentsline {subsection}{\numberline {4.3}Side Profile Classifier}{43}}
\@writefile{lof}{\contentsline {figure}{\numberline {21}{\ignorespaces Examples of correct detections - side profile classifier}}{43}}
\@writefile{lof}{\contentsline {subfigure}{\numberline{(a)}{\ignorespaces {}}}{43}}
\@writefile{lof}{\contentsline {subfigure}{\numberline{(b)}{\ignorespaces {}}}{43}}
\@writefile{lof}{\contentsline {subfigure}{\numberline{(c)}{\ignorespaces {}}}{43}}
\@writefile{lof}{\contentsline {figure}{\numberline {22}{\ignorespaces Examples of incorrect detections - side profile classifier}}{44}}
\@writefile{lof}{\contentsline {subfigure}{\numberline{(a)}{\ignorespaces {}}}{44}}
\@writefile{lof}{\contentsline {subfigure}{\numberline{(b)}{\ignorespaces {}}}{44}}
\@writefile{lof}{\contentsline {subfigure}{\numberline{(c)}{\ignorespaces {}}}{44}}
\@writefile{toc}{\contentsline {subsection}{\numberline {4.4}Discussion}{44}}
\@writefile{toc}{\contentsline {section}{\numberline {5}Conclusion}{45}}
\@writefile{toc}{\contentsline {subsection}{\numberline {5.1}Outcomes}{45}}
\@writefile{toc}{\contentsline {subsection}{\numberline {5.2}Recommendations}{46}}
\@writefile{toc}{\contentsline {subsection}{\numberline {5.3}Future Work}{46}}
\bibdata{references}
\bibcite{occupancy2}{{1}{2011}{{Bonnifait et~al.}}{{Bonnifait, Cherfaoui \&\ Moras}}}
\bibcite{hog2}{{2}{2013}{{Chen et~al.}}{{Chen, Chen \&\ Chen}}}
\bibcite{willowGarage}{{3}{2012}{{Cousins, S.}}{{}}}
\bibcite{hog}{{4}{2005}{{Dalal \&\ Triggs}}{{}}}
\bibcite{occupancy1}{{5}{1989}{{Elfes}}{{}}}
\bibcite{visionStuff}{{6}{2013}{{Fernandez \&\ Martinez}}{{}}}
\bibcite{LCM}{{7}{2011}{{Huang et~al.}}{{Huang, Olson \&\ Moore}}}
\bibcite{g}{{8}{2013}{{Ilas}}{{}}}
\bibcite{m}{{9}{2011}{{Pandey et~al.}}{{Pandey, McBride, R. \&\ Eustice}}}
\bibcite{n}{{10}{1988}{{Stansfield}}{{}}}
\@writefile{toc}{\contentsline {section}{\numberline {6}References}{48}}
\bibcite{pointcloud}{{11}{2012}{{Wang et~al.}}{{Wang, Posner \&\ Newman}}}
\bibcite{indoorPCL}{{12}{2013}{{Zhang et~al.}}{{Zhang, Kong \&\ Zhao}}}
\bibstyle{agsm}
\@writefile{toc}{\contentsline {section}{\numberline {7}Appendix}{50}}
\@writefile{toc}{\contentsline {subsection}{\numberline {7.1}LCM Types}{50}}
\newlabel{sec:appendixPacket}{{7.1}{50}}
\@writefile{lol}{\contentsline {lstlisting}{appendix/gps\textunderscore to\textunderscore local\textunderscore t.lcm}{50}}
\@writefile{lol}{\contentsline {lstlisting}{appendix/laser\textunderscore t.lcm}{50}}
\@writefile{lol}{\contentsline {lstlisting}{appendix/pose\textunderscore t.lcm}{51}}
\@writefile{lol}{\contentsline {lstlisting}{appendix/velodyne\textunderscore t.lcm}{51}}
